<svg xmlns="http://www.w3.org/2000/svg">
  <defs>
    <g id="tanuki" fill="none" fill-rule="evenodd">
      <path d="M105.061 193.655l38.64-118.921h-77.28l38.64 118.921z" fill="#E24329"/>
      <path d="M105.061 193.655L66.421 74.734H12.268l92.793 118.92z" fill="#FC6D26"/>
      <path d="M12.268 74.734L.526 110.874a8 8 0 0 0 2.907 8.943l101.628 73.838-92.793-118.92z" fill="#FCA326"/>
      <path d="M12.268 74.734h54.153L43.148 3.11c-1.197-3.686-6.41-3.685-7.608 0L12.27 74.734z" fill="#E24329"/>
      <path d="M105.061 193.655l38.64-118.921h54.153l-92.793 118.92z" fill="#FC6D26"/>
      <path d="M197.854 74.734l11.742 36.14a8 8 0 0 1-2.906 8.943l-101.629 73.838 92.793-118.92z" fill="#FCA326"/>
      <path d="M197.854 74.734h-54.153L166.974 3.11c1.197-3.686 6.411-3.685 7.608 0l23.272 71.625z" fill="#E24329"/>
    </g>
    <g id="twitter">
      <path fill="none" d="M0 0H400V400H0z"/>
      <path fill="#1da1f2"
            d="M153.62,301.59c94.34,0,145.94-78.16,145.94-145.94,0-2.22,0-4.43-.15-6.63A104.36,104.36,0,0,0,325,122.47a102.38,102.38,0,0,1-29.46,8.07,51.47,51.47,0,0,0,22.55-28.37,102.79,102.79,0,0,1-32.57,12.45,51.34,51.34,0,0,0-87.41,46.78A145.62,145.62,0,0,1,92.4,107.81a51.33,51.33,0,0,0,15.88,68.47A50.91,50.91,0,0,1,85,169.86c0,.21,0,.43,0,.65a51.31,51.31,0,0,0,41.15,50.28,51.21,51.21,0,0,1-23.16.88,51.35,51.35,0,0,0,47.92,35.62,102.92,102.92,0,0,1-63.7,22A104.41,104.41,0,0,1,75,278.55a145.21,145.21,0,0,0,78.62,23"/>
    </g>
  </defs>
</svg>
